%!PS-Adobe-3.0 EPSF-3.0
%%DocumentNeededResources: font Helvetica
%%+ font Helvetica-Bold
%%+ font Helvetica-Oblique
%%+ font Helvetica-BoldOblique
%%+ font Symbol
%%Title: R Graphics Output
%%Creator: R Software
%%Pages: (atend)
%%BoundingBox: 0 0 443 295
%%EndComments
%%BeginProlog
/bp  { gs sRGB gs } def
% begin .ps.prolog
/gs  { gsave } bind def
/gr  { grestore } bind def
/ep  { showpage gr gr } bind def
/m   { moveto } bind def
/l  { rlineto } bind def
/np  { newpath } bind def
/cp  { closepath } bind def
/f   { fill } bind def
/o   { stroke } bind def
/c   { newpath 0 360 arc } bind def
/r   { 4 2 roll moveto 1 copy 3 -1 roll exch 0 exch rlineto 0 rlineto -1 mul 0 exch rlineto closepath } bind def
/p1  { stroke } bind def
/p2  { gsave bg fill grestore newpath } bind def
/p3  { gsave bg fill grestore stroke } bind def
/p6  { gsave bg eofill grestore newpath } bind def
/p7  { gsave bg eofill grestore stroke } bind def
/t   { 5 -2 roll moveto gsave rotate
       1 index stringwidth pop
       mul neg 0 rmoveto show grestore } bind def
/ta  { 4 -2 roll moveto gsave rotate show } bind def
/tb  { 2 -1 roll 0 rmoveto show } bind def
/cl  { grestore gsave newpath 3 index 3 index moveto 1 index
       4 -1 roll lineto  exch 1 index lineto lineto
       closepath clip newpath } bind def
/rgb { setrgbcolor } bind def
/s   { scalefont setfont } bind def
% end   .ps.prolog
/sRGB { [ /CIEBasedABC
          << /DecodeLMN
               [ { dup 0.03928 le
                        {12.92321 div}
                        {0.055 add 1.055 div 2.4 exp }
                     ifelse
                 } bind dup dup
               ]
             /MatrixLMN [0.412457 0.212673 0.019334
                         0.357576 0.715152 0.119192
                         0.180437 0.072175 0.950301]
             /WhitePoint [0.9505 1.0 1.0890]
           >>
         ] setcolorspace } bind def
/srgb { setcolor } bind def
% begin encoding
/WinAnsiEncoding [
 /.notdef /.notdef /.notdef /.notdef /.notdef /.notdef /.notdef /.notdef
 /.notdef /.notdef /.notdef /.notdef /.notdef /.notdef /.notdef /.notdef
 /.notdef /.notdef /.notdef /.notdef /.notdef /.notdef /.notdef /.notdef
 /.notdef /.notdef /.notdef /.notdef /.notdef /.notdef /.notdef /.notdef
 /space /exclam /quotedbl /numbersign /dollar /percent /ampersand /quoteright
 /parenleft /parenright /asterisk /plus /comma /minus /period /slash
 /zero /one /two /three /four /five /six /seven
 /eight /nine /colon /semicolon /less /equal /greater /question
 /at /A /B /C /D /E /F /G
 /H /I /J /K /L /M /N /O
 /P /Q /R /S /T /U /V /W
 /X /Y /Z /bracketleft /backslash /bracketright /asciicircum /underscore
 /grave /a /b /c /d /e /f /g
 /h /i /j /k /l /m /n /o
 /p /q /r /s /t /u /v /w
 /x /y /z /braceleft /bar /braceright /asciitilde /.notdef
 /Euro /.notdef /quotesinglbase /florin /quotedblbase /ellipsis /dagger /daggerdbl
 /circumflex /perthousand /Scaron /guilsinglleft /OE /.notdef /Zcaron /.notdef
 /.notdef /quoteleft /quoteright /quotedblleft /quotedblright /bullet /endash /emdash
 /tilde /trademark /scaron /guilsinglright /oe /.notdef /zcaron /Ydieresis
 /space /exclamdown /cent /sterling /currency /yen /brokenbar /section
 /dieresis /copyright /ordfeminine /guillemotleft /logicalnot /hyphen /registered /macron
 /degree /plusminus /twosuperior /threesuperior /acute /mu /paragraph /periodcentered
 /cedilla /onesuperior /ordmasculine /guillemotright /onequarter /onehalf /threequarters /questiondown
 /Agrave /Aacute /Acircumflex /Atilde /Adieresis /Aring /AE /Ccedilla
 /Egrave /Eacute /Ecircumflex /Edieresis /Igrave /Iacute /Icircumflex /Idieresis
 /Eth /Ntilde /Ograve /Oacute /Ocircumflex /Otilde /Odieresis /multiply
 /Oslash /Ugrave /Uacute /Ucircumflex /Udieresis /Yacute /Thorn /germandbls
 /agrave /aacute /acircumflex /atilde /adieresis /aring /ae /ccedilla
 /egrave /eacute /ecircumflex /edieresis /igrave /iacute /icircumflex /idieresis
 /eth /ntilde /ograve /oacute /ocircumflex /otilde /odieresis /divide
 /oslash /ugrave /uacute /ucircumflex /udieresis /yacute /thorn /ydieresis
]
 def
% end encoding
%%IncludeResource: font Helvetica
/Helvetica findfont
dup length dict begin
  {1 index /FID ne {def} {pop pop} ifelse} forall
  /Encoding WinAnsiEncoding def
  currentdict
  end
/Font1 exch definefont pop
%%IncludeResource: font Helvetica-Bold
/Helvetica-Bold findfont
dup length dict begin
  {1 index /FID ne {def} {pop pop} ifelse} forall
  /Encoding WinAnsiEncoding def
  currentdict
  end
/Font2 exch definefont pop
%%IncludeResource: font Helvetica-Oblique
/Helvetica-Oblique findfont
dup length dict begin
  {1 index /FID ne {def} {pop pop} ifelse} forall
  /Encoding WinAnsiEncoding def
  currentdict
  end
/Font3 exch definefont pop
%%IncludeResource: font Helvetica-BoldOblique
/Helvetica-BoldOblique findfont
dup length dict begin
  {1 index /FID ne {def} {pop pop} ifelse} forall
  /Encoding WinAnsiEncoding def
  currentdict
  end
/Font4 exch definefont pop
%%IncludeResource: font Symbol
/Symbol findfont
dup length dict begin
  {1 index /FID ne {def} {pop pop} ifelse} forall
  currentdict
  end
/Font5 exch definefont pop
%%EndProlog
%%Page: 1 1
bp
/bg { 1 1 1 srgb } def
0.00 0.00 442.80 295.20 r p2
0.00 0.00 442.80 295.20 cl
0.00 0.00 442.80 295.20 cl
0.00 0.00 442.80 295.20 cl
0.00 0.00 442.80 295.20 cl
0.00 0.00 442.80 295.20 cl
0.00 0.00 442.80 295.20 cl
0.00 0.00 442.80 295.20 cl
0.00 0.00 442.80 295.20 cl
0.00 0.00 442.80 295.20 cl
0.00 0.00 442.80 295.20 cl
0.00 0.00 442.80 295.20 cl
0.00 0.00 442.80 295.20 cl
0.00 0.00 442.80 295.20 cl
0.00 0.00 442.80 295.20 cl
0.00 0.00 442.80 295.20 cl
0.00 0.00 442.80 295.20 cl
/bg { 1 1 1 srgb } def
1 1 1 srgb
1.07 setlinewidth
[] 0 setdash
1 setlinecap
1 setlinejoin
10.00 setmiterlimit
0.00 0.00 442.80 295.20 r p3
0.00 0.00 442.80 295.20 cl
28.47 31.91 309.50 289.72 cl
/bg { 1 1 1 srgb } def
28.47 31.91 281.03 257.81 r p2
0.9216 0.9216 0.9216 srgb
0.53 setlinewidth
[] 0 setdash
0 setlinecap
1 setlinejoin
10.00 setmiterlimit
np
28.47 58.19 m
281.03 0 l
o
np
28.47 120.11 m
281.03 0 l
o
np
28.47 182.03 m
281.03 0 l
o
np
28.47 243.95 m
281.03 0 l
o
np
53.05 31.91 m
0 257.81 l
o
np
120.51 31.91 m
0 257.81 l
o
np
187.97 31.91 m
0 257.81 l
o
np
255.43 31.91 m
0 257.81 l
o
1.07 setlinewidth
[] 0 setdash
np
28.47 89.15 m
281.03 0 l
o
np
28.47 151.07 m
281.03 0 l
o
np
28.47 212.99 m
281.03 0 l
o
np
28.47 274.91 m
281.03 0 l
o
np
86.78 31.91 m
0 257.81 l
o
np
154.24 31.91 m
0 257.81 l
o
np
221.70 31.91 m
0 257.81 l
o
np
289.15 31.91 m
0 257.81 l
o
/bg { 0 0.7490 0.7686 srgb } def
0 0.7490 0.7686 srgb
0.71 setlinewidth
[] 0 setdash
1 setlinecap
252.40 121.02 1.95 c p3
/bg { 0.9725 0.4627 0.4275 srgb } def
0.9725 0.4627 0.4275 srgb
226.08 69.55 1.95 c p3
/bg { 0 0.7490 0.7686 srgb } def
0 0.7490 0.7686 srgb
193.36 125.47 1.95 c p3
45.97 114.30 1.95 c p3
/bg { 0.9725 0.4627 0.4275 srgb } def
0.9725 0.4627 0.4275 srgb
156.55 110.66 1.95 c p3
/bg { 0 0.7490 0.7686 srgb } def
0 0.7490 0.7686 srgb
200.78 104.78 1.95 c p3
54.74 59.77 1.95 c p3
/bg { 0.9725 0.4627 0.4275 srgb } def
0.9725 0.4627 0.4275 srgb
216.94 174.71 1.95 c p3
/bg { 0 0.7490 0.7686 srgb } def
0 0.7490 0.7686 srgb
47.66 100.66 1.95 c p3
/bg { 0.9725 0.4627 0.4275 srgb } def
0.9725 0.4627 0.4275 srgb
140.48 159.68 1.95 c p3
/bg { 0 0.7490 0.7686 srgb } def
0 0.7490 0.7686 srgb
102.97 60.12 1.95 c p3
180.65 59.94 1.95 c p3
144.45 70.29 1.95 c p3
182.23 68.37 1.95 c p3
/bg { 0.9725 0.4627 0.4275 srgb } def
0.9725 0.4627 0.4275 srgb
246.31 127.63 1.95 c p3
/bg { 0 0.7490 0.7686 srgb } def
0 0.7490 0.7686 srgb
144.64 111.14 1.95 c p3
149.18 210.16 1.95 c p3
/bg { 0.9725 0.4627 0.4275 srgb } def
0.9725 0.4627 0.4275 srgb
158.58 95.73 1.95 c p3
/bg { 0 0.7490 0.7686 srgb } def
0 0.7490 0.7686 srgb
191.36 90.34 1.95 c p3
72.28 76.76 1.95 c p3
217.31 93.35 1.95 c p3
/bg { 0.9725 0.4627 0.4275 srgb } def
0.9725 0.4627 0.4275 srgb
179.73 132.20 1.95 c p3
189.70 91.48 1.95 c p3
149.90 108.53 1.95 c p3
/bg { 0 0.7490 0.7686 srgb } def
0 0.7490 0.7686 srgb
70.25 97.41 1.95 c p3
246.99 123.08 1.95 c p3
/bg { 0.9725 0.4627 0.4275 srgb } def
0.9725 0.4627 0.4275 srgb
111.40 81.10 1.95 c p3
226.08 121.20 1.95 c p3
/bg { 0 0.7490 0.7686 srgb } def
0 0.7490 0.7686 srgb
104.32 77.08 1.95 c p3
/bg { 0.9725 0.4627 0.4275 srgb } def
0.9725 0.4627 0.4275 srgb
110.39 100.81 1.95 c p3
181.57 209.90 1.95 c p3
/bg { 0 0.7490 0.7686 srgb } def
0 0.7490 0.7686 srgb
109.38 106.66 1.95 c p3
60.81 110.21 1.95 c p3
/bg { 0.9725 0.4627 0.4275 srgb } def
0.9725 0.4627 0.4275 srgb
124.23 109.77 1.95 c p3
/bg { 0 0.7490 0.7686 srgb } def
0 0.7490 0.7686 srgb
259.47 89.63 1.95 c p3
110.05 43.63 1.95 c p3
219.99 47.74 1.95 c p3
90.83 120.32 1.95 c p3
/bg { 0.9725 0.4627 0.4275 srgb } def
0.9725 0.4627 0.4275 srgb
208.08 76.26 1.95 c p3
/bg { 0 0.7490 0.7686 srgb } def
0 0.7490 0.7686 srgb
88.13 102.40 1.95 c p3
107.02 98.23 1.95 c p3
204.16 120.28 1.95 c p3
82.73 81.44 1.95 c p3
96.71 78.11 1.95 c p3
/bg { 0.9725 0.4627 0.4275 srgb } def
0.9725 0.4627 0.4275 srgb
182.96 128.53 1.95 c p3
/bg { 0 0.7490 0.7686 srgb } def
0 0.7490 0.7686 srgb
117.14 100.94 1.95 c p3
239.24 109.42 1.95 c p3
110.05 110.92 1.95 c p3
/bg { 0.9725 0.4627 0.4275 srgb } def
0.9725 0.4627 0.4275 srgb
60.97 192.28 1.95 c p3
/bg { 0 0.7490 0.7686 srgb } def
0 0.7490 0.7686 srgb
245.11 97.77 1.95 c p3
/bg { 0.9725 0.4627 0.4275 srgb } def
0.9725 0.4627 0.4275 srgb
93.53 83.61 1.95 c p3
83.78 71.59 1.95 c p3
/bg { 0 0.7490 0.7686 srgb } def
0 0.7490 0.7686 srgb
296.73 73.44 1.95 c p3
211.24 107.93 1.95 c p3
115.36 62.12 1.95 c p3
/bg { 0.9725 0.4627 0.4275 srgb } def
0.9725 0.4627 0.4275 srgb
91.84 125.98 1.95 c p3
196.07 116.56 1.95 c p3
/bg { 0 0.7490 0.7686 srgb } def
0 0.7490 0.7686 srgb
104.37 137.21 1.95 c p3
/bg { 0.9725 0.4627 0.4275 srgb } def
0.9725 0.4627 0.4275 srgb
144.82 103.03 1.95 c p3
/bg { 0 0.7490 0.7686 srgb } def
0 0.7490 0.7686 srgb
41.25 113.11 1.95 c p3
179.45 108.06 1.95 c p3
94.20 118.38 1.95 c p3
71.60 87.02 1.95 c p3
177.17 101.41 1.95 c p3
201.98 133.33 1.95 c p3
160.31 61.69 1.95 c p3
/bg { 0.9725 0.4627 0.4275 srgb } def
0.9725 0.4627 0.4275 srgb
131.25 115.90 1.95 c p3
/bg { 0 0.7490 0.7686 srgb } def
0 0.7490 0.7686 srgb
170.95 90.57 1.95 c p3
132.99 100.93 1.95 c p3
84.76 118.30 1.95 c p3
/bg { 0.9725 0.4627 0.4275 srgb } def
0.9725 0.4627 0.4275 srgb
107.02 143.97 1.95 c p3
143.71 92.70 1.95 c p3
/bg { 0 0.7490 0.7686 srgb } def
0 0.7490 0.7686 srgb
145.47 75.04 1.95 c p3
194.04 119.38 1.95 c p3
111.85 116.66 1.95 c p3
92.18 131.48 1.95 c p3
161.35 84.58 1.95 c p3
71.68 106.54 1.95 c p3
65.77 91.81 1.95 c p3
59.95 103.41 1.95 c p3
75.84 117.04 1.95 c p3
63.09 94.45 1.95 c p3
197.83 87.66 1.95 c p3
/bg { 0.9725 0.4627 0.4275 srgb } def
0.9725 0.4627 0.4275 srgb
160.98 118.16 1.95 c p3
206.69 124.52 1.95 c p3
/bg { 0 0.7490 0.7686 srgb } def
0 0.7490 0.7686 srgb
113.61 117.03 1.95 c p3
74.55 72.59 1.95 c p3
164.86 101.39 1.95 c p3
/bg { 0.9725 0.4627 0.4275 srgb } def
0.9725 0.4627 0.4275 srgb
257.57 211.51 1.95 c p3
/bg { 0 0.7490 0.7686 srgb } def
0 0.7490 0.7686 srgb
93.85 135.28 1.95 c p3
/bg { 0.9725 0.4627 0.4275 srgb } def
0.9725 0.4627 0.4275 srgb
126.63 86.80 1.95 c p3
269.58 177.90 1.95 c p3
/bg { 0 0.7490 0.7686 srgb } def
0 0.7490 0.7686 srgb
217.68 94.75 1.95 c p3
64.20 127.06 1.95 c p3
/bg { 0.9725 0.4627 0.4275 srgb } def
0.9725 0.4627 0.4275 srgb
102.43 101.82 1.95 c p3
195.70 278.00 1.95 c p3
52.29 95.11 1.95 c p3
/bg { 0 0.7490 0.7686 srgb } def
0 0.7490 0.7686 srgb
211.59 69.19 1.95 c p3
158.58 48.08 1.95 c p3
0.9725 0.4627 0.4275 srgb
2.13 setlinewidth
[] 0 setdash
0 setlinecap
np
52.29 97.41 m
2.75 0.72 l
2.75 0.73 l
2.75 0.72 l
2.75 0.72 l
2.75 0.73 l
2.75 0.72 l
2.75 0.72 l
2.75 0.73 l
2.75 0.72 l
2.75 0.72 l
2.76 0.73 l
2.75 0.72 l
2.75 0.72 l
2.75 0.73 l
2.75 0.72 l
2.75 0.72 l
2.75 0.73 l
2.75 0.72 l
2.75 0.72 l
2.75 0.73 l
2.75 0.72 l
2.75 0.72 l
2.75 0.73 l
2.75 0.72 l
2.75 0.72 l
2.75 0.73 l
2.75 0.72 l
2.75 0.72 l
2.75 0.73 l
2.75 0.72 l
2.75 0.72 l
2.76 0.73 l
2.75 0.72 l
2.75 0.72 l
2.75 0.73 l
2.75 0.72 l
2.75 0.72 l
2.75 0.73 l
2.75 0.72 l
2.75 0.72 l
2.75 0.73 l
2.75 0.72 l
2.75 0.72 l
2.75 0.73 l
2.75 0.72 l
2.75 0.72 l
2.75 0.73 l
2.75 0.72 l
2.75 0.72 l
2.75 0.73 l
2.75 0.72 l
2.75 0.72 l
2.76 0.73 l
2.75 0.72 l
2.75 0.73 l
2.75 0.72 l
2.75 0.72 l
2.75 0.73 l
2.75 0.72 l
2.75 0.72 l
2.75 0.73 l
2.75 0.72 l
2.75 0.72 l
2.75 0.73 l
2.75 0.72 l
2.75 0.72 l
2.75 0.73 l
2.75 0.72 l
2.75 0.72 l
2.75 0.73 l
2.75 0.72 l
2.75 0.72 l
2.75 0.73 l
2.76 0.72 l
2.75 0.72 l
2.75 0.73 l
2.75 0.72 l
2.75 0.72 l
2.75 0.73 l
o
0 0.7490 0.7686 srgb
np
41.25 100.67 m
3.23 -0.08 l
3.23 -0.08 l
3.24 -0.07 l
3.23 -0.08 l
3.24 -0.08 l
3.23 -0.08 l
3.23 -0.08 l
3.24 -0.08 l
3.23 -0.08 l
3.24 -0.07 l
3.23 -0.08 l
3.23 -0.08 l
3.24 -0.08 l
3.23 -0.08 l
3.24 -0.08 l
3.23 -0.08 l
3.23 -0.08 l
3.24 -0.07 l
3.23 -0.08 l
3.24 -0.08 l
3.23 -0.08 l
3.23 -0.08 l
3.24 -0.08 l
3.23 -0.08 l
3.23 -0.07 l
3.24 -0.08 l
3.23 -0.08 l
3.24 -0.08 l
3.23 -0.08 l
3.23 -0.08 l
3.24 -0.08 l
3.23 -0.07 l
3.24 -0.08 l
3.23 -0.08 l
3.23 -0.08 l
3.24 -0.08 l
3.23 -0.08 l
3.24 -0.08 l
3.23 -0.08 l
3.23 -0.07 l
3.24 -0.08 l
3.23 -0.08 l
3.24 -0.08 l
3.23 -0.08 l
3.23 -0.08 l
3.24 -0.08 l
3.23 -0.07 l
3.24 -0.08 l
3.23 -0.08 l
3.23 -0.08 l
3.24 -0.08 l
3.23 -0.08 l
3.24 -0.08 l
3.23 -0.08 l
3.23 -0.07 l
3.24 -0.08 l
3.23 -0.08 l
3.23 -0.08 l
3.24 -0.08 l
3.23 -0.08 l
3.24 -0.08 l
3.23 -0.07 l
3.23 -0.08 l
3.24 -0.08 l
3.23 -0.08 l
3.24 -0.08 l
3.23 -0.08 l
3.23 -0.08 l
3.24 -0.08 l
3.23 -0.07 l
3.24 -0.08 l
3.23 -0.08 l
3.23 -0.08 l
3.24 -0.08 l
3.23 -0.08 l
3.24 -0.08 l
3.23 -0.07 l
3.23 -0.08 l
3.24 -0.08 l
o
0.2000 0.2000 0.2000 srgb
1.07 setlinewidth
[] 0 setdash
1 setlinecap
28.47 31.91 281.03 257.81 r p1
0.00 0.00 442.80 295.20 cl
0.00 0.00 442.80 295.20 cl
0.00 0.00 442.80 295.20 cl
0.00 0.00 442.80 295.20 cl
0.00 0.00 442.80 295.20 cl
0.00 0.00 442.80 295.20 cl
0.00 0.00 442.80 295.20 cl
0.00 0.00 442.80 295.20 cl
0.00 0.00 442.80 295.20 cl
0.00 0.00 442.80 295.20 cl
0.00 0.00 442.80 295.20 cl
0.00 0.00 442.80 295.20 cl
0.00 0.00 442.80 295.20 cl
0.00 0.00 442.80 295.20 cl
0.00 0.00 442.80 295.20 cl
0.00 0.00 442.80 295.20 cl
/Font1 findfont 9 s
0.3020 0.3020 0.3020 srgb
23.54 85.92 (1) 1 0 t
23.54 147.84 (2) 1 0 t
23.54 209.76 (3) 1 0 t
23.54 271.68 (4) 1 0 t
0.00 0.00 442.80 295.20 cl
0.00 0.00 442.80 295.20 cl
0.2000 0.2000 0.2000 srgb
1.07 setlinewidth
[] 0 setdash
0 setlinecap
1 setlinejoin
10.00 setmiterlimit
np
25.73 89.15 m
2.74 0 l
o
np
25.73 151.07 m
2.74 0 l
o
np
25.73 212.99 m
2.74 0 l
o
np
25.73 274.91 m
2.74 0 l
o
0.00 0.00 442.80 295.20 cl
0.00 0.00 442.80 295.20 cl
0.00 0.00 442.80 295.20 cl
0.00 0.00 442.80 295.20 cl
0.00 0.00 442.80 295.20 cl
0.00 0.00 442.80 295.20 cl
0.00 0.00 442.80 295.20 cl
0.00 0.00 442.80 295.20 cl
0.00 0.00 442.80 295.20 cl
0.00 0.00 442.80 295.20 cl
0.2000 0.2000 0.2000 srgb
1.07 setlinewidth
[] 0 setdash
0 setlinecap
1 setlinejoin
10.00 setmiterlimit
np
86.78 29.17 m
0 2.74 l
o
np
154.24 29.17 m
0 2.74 l
o
np
221.70 29.17 m
0 2.74 l
o
np
289.15 29.17 m
0 2.74 l
o
0.00 0.00 442.80 295.20 cl
0.00 0.00 442.80 295.20 cl
/Font1 findfont 9 s
0.3020 0.3020 0.3020 srgb
86.78 20.52 (2) .5 0 t
154.24 20.52 (4) .5 0 t
221.70 20.52 (6) .5 0 t
289.15 20.52 (8) .5 0 t
0.00 0.00 442.80 295.20 cl
0.00 0.00 442.80 295.20 cl
0.00 0.00 442.80 295.20 cl
0.00 0.00 442.80 295.20 cl
0.00 0.00 442.80 295.20 cl
0.00 0.00 442.80 295.20 cl
/Font1 findfont 11 s
0 0 0 srgb
138.42 7.90 (Age in y) 0 ta
-0.220 (ears) tb gr
0.00 0.00 442.80 295.20 cl
0.00 0.00 442.80 295.20 cl
/Font1 findfont 11 s
0 0 0 srgb
13.38 124.13 (Shannon inde) 90 ta
-0.330 (x) tb gr
0.00 0.00 442.80 295.20 cl
0.00 0.00 442.80 295.20 cl
0.00 0.00 442.80 295.20 cl
0.00 0.00 442.80 295.20 cl
0.00 0.00 442.80 295.20 cl
0.00 0.00 442.80 295.20 cl
0.00 0.00 442.80 295.20 cl
0.00 0.00 442.80 295.20 cl
/bg { 1 1 1 srgb } def
320.46 130.16 116.86 61.32 r p2
0.00 0.00 442.80 295.20 cl
0.00 0.00 442.80 295.20 cl
0.00 0.00 442.80 295.20 cl
0.00 0.00 442.80 295.20 cl
0.00 0.00 442.80 295.20 cl
0.00 0.00 442.80 295.20 cl
0.00 0.00 442.80 295.20 cl
/bg { 1 1 1 srgb } def
325.94 152.92 17.28 17.28 r p2
0.00 0.00 442.80 295.20 cl
0.00 0.00 442.80 295.20 cl
/bg { 0.9725 0.4627 0.4275 srgb } def
0.9725 0.4627 0.4275 srgb
0.71 setlinewidth
[] 0 setdash
1 setlinecap
1 setlinejoin
10.00 setmiterlimit
334.58 161.56 1.95 c p3
0.00 0.00 442.80 295.20 cl
0.00 0.00 442.80 295.20 cl
0.9725 0.4627 0.4275 srgb
2.13 setlinewidth
[] 0 setdash
0 setlinecap
1 setlinejoin
10.00 setmiterlimit
np
327.67 161.56 m
13.82 0 l
o
0.00 0.00 442.80 295.20 cl
0.00 0.00 442.80 295.20 cl
/bg { 1 1 1 srgb } def
325.94 135.64 17.28 17.28 r p2
0.00 0.00 442.80 295.20 cl
0.00 0.00 442.80 295.20 cl
/bg { 0 0.7490 0.7686 srgb } def
0 0.7490 0.7686 srgb
0.71 setlinewidth
[] 0 setdash
1 setlinecap
1 setlinejoin
10.00 setmiterlimit
334.58 144.28 1.95 c p3
0.00 0.00 442.80 295.20 cl
0.00 0.00 442.80 295.20 cl
0 0.7490 0.7686 srgb
2.13 setlinewidth
[] 0 setdash
0 setlinecap
1 setlinejoin
10.00 setmiterlimit
np
327.67 144.28 m
13.82 0 l
o
0.00 0.00 442.80 295.20 cl
0.00 0.00 442.80 295.20 cl
0.00 0.00 442.80 295.20 cl
0.00 0.00 442.80 295.20 cl
/Font1 findfont 9 s
0 0 0 srgb
348.70 158.33 (Non-carr) 0 ta
0.135 (iers) tb gr
0.00 0.00 442.80 295.20 cl
0.00 0.00 442.80 295.20 cl
0.00 0.00 442.80 295.20 cl
0.00 0.00 442.80 295.20 cl
0.00 0.00 442.80 295.20 cl
/Font3 findfont 9 s
0 0 0 srgb
348.70 142.01 (Mycoplasma ) 0 0 t
/Font1 findfont 9 s
401.71 142.01 (carr) 0 ta
0.135 (iers) tb gr
0.00 0.00 442.80 295.20 cl
0.00 0.00 442.80 295.20 cl
0.00 0.00 442.80 295.20 cl
0.00 0.00 442.80 295.20 cl
0.00 0.00 442.80 295.20 cl
0.00 0.00 442.80 295.20 cl
0.00 0.00 442.80 295.20 cl
0.00 0.00 442.80 295.20 cl
0.00 0.00 442.80 295.20 cl
0.00 0.00 442.80 295.20 cl
0.00 0.00 442.80 295.20 cl
0.00 0.00 442.80 295.20 cl
0.00 0.00 442.80 295.20 cl
ep
%%Trailer
%%Pages: 1
%%EOF
