%!PS-Adobe-3.0 EPSF-3.0
%%DocumentNeededResources: font Helvetica
%%+ font Helvetica-Bold
%%+ font Helvetica-Oblique
%%+ font Helvetica-BoldOblique
%%+ font Symbol
%%Title: R Graphics Output
%%Creator: R Software
%%Pages: (atend)
%%BoundingBox: 0 0 443 302
%%EndComments
%%BeginProlog
/bp  { gs sRGB gs } def
% begin .ps.prolog
/gs  { gsave } bind def
/gr  { grestore } bind def
/ep  { showpage gr gr } bind def
/m   { moveto } bind def
/l  { rlineto } bind def
/np  { newpath } bind def
/cp  { closepath } bind def
/f   { fill } bind def
/o   { stroke } bind def
/c   { newpath 0 360 arc } bind def
/r   { 4 2 roll moveto 1 copy 3 -1 roll exch 0 exch rlineto 0 rlineto -1 mul 0 exch rlineto closepath } bind def
/p1  { stroke } bind def
/p2  { gsave bg fill grestore newpath } bind def
/p3  { gsave bg fill grestore stroke } bind def
/p6  { gsave bg eofill grestore newpath } bind def
/p7  { gsave bg eofill grestore stroke } bind def
/t   { 5 -2 roll moveto gsave rotate
       1 index stringwidth pop
       mul neg 0 rmoveto show grestore } bind def
/ta  { 4 -2 roll moveto gsave rotate show } bind def
/tb  { 2 -1 roll 0 rmoveto show } bind def
/cl  { grestore gsave newpath 3 index 3 index moveto 1 index
       4 -1 roll lineto  exch 1 index lineto lineto
       closepath clip newpath } bind def
/rgb { setrgbcolor } bind def
/s   { scalefont setfont } bind def
% end   .ps.prolog
/sRGB { [ /CIEBasedABC
          << /DecodeLMN
               [ { dup 0.03928 le
                        {12.92321 div}
                        {0.055 add 1.055 div 2.4 exp }
                     ifelse
                 } bind dup dup
               ]
             /MatrixLMN [0.412457 0.212673 0.019334
                         0.357576 0.715152 0.119192
                         0.180437 0.072175 0.950301]
             /WhitePoint [0.9505 1.0 1.0890]
           >>
         ] setcolorspace } bind def
/srgb { setcolor } bind def
% begin encoding
/WinAnsiEncoding [
 /.notdef /.notdef /.notdef /.notdef /.notdef /.notdef /.notdef /.notdef
 /.notdef /.notdef /.notdef /.notdef /.notdef /.notdef /.notdef /.notdef
 /.notdef /.notdef /.notdef /.notdef /.notdef /.notdef /.notdef /.notdef
 /.notdef /.notdef /.notdef /.notdef /.notdef /.notdef /.notdef /.notdef
 /space /exclam /quotedbl /numbersign /dollar /percent /ampersand /quoteright
 /parenleft /parenright /asterisk /plus /comma /minus /period /slash
 /zero /one /two /three /four /five /six /seven
 /eight /nine /colon /semicolon /less /equal /greater /question
 /at /A /B /C /D /E /F /G
 /H /I /J /K /L /M /N /O
 /P /Q /R /S /T /U /V /W
 /X /Y /Z /bracketleft /backslash /bracketright /asciicircum /underscore
 /grave /a /b /c /d /e /f /g
 /h /i /j /k /l /m /n /o
 /p /q /r /s /t /u /v /w
 /x /y /z /braceleft /bar /braceright /asciitilde /.notdef
 /Euro /.notdef /quotesinglbase /florin /quotedblbase /ellipsis /dagger /daggerdbl
 /circumflex /perthousand /Scaron /guilsinglleft /OE /.notdef /Zcaron /.notdef
 /.notdef /quoteleft /quoteright /quotedblleft /quotedblright /bullet /endash /emdash
 /tilde /trademark /scaron /guilsinglright /oe /.notdef /zcaron /Ydieresis
 /space /exclamdown /cent /sterling /currency /yen /brokenbar /section
 /dieresis /copyright /ordfeminine /guillemotleft /logicalnot /hyphen /registered /macron
 /degree /plusminus /twosuperior /threesuperior /acute /mu /paragraph /periodcentered
 /cedilla /onesuperior /ordmasculine /guillemotright /onequarter /onehalf /threequarters /questiondown
 /Agrave /Aacute /Acircumflex /Atilde /Adieresis /Aring /AE /Ccedilla
 /Egrave /Eacute /Ecircumflex /Edieresis /Igrave /Iacute /Icircumflex /Idieresis
 /Eth /Ntilde /Ograve /Oacute /Ocircumflex /Otilde /Odieresis /multiply
 /Oslash /Ugrave /Uacute /Ucircumflex /Udieresis /Yacute /Thorn /germandbls
 /agrave /aacute /acircumflex /atilde /adieresis /aring /ae /ccedilla
 /egrave /eacute /ecircumflex /edieresis /igrave /iacute /icircumflex /idieresis
 /eth /ntilde /ograve /oacute /ocircumflex /otilde /odieresis /divide
 /oslash /ugrave /uacute /ucircumflex /udieresis /yacute /thorn /ydieresis
]
 def
% end encoding
%%IncludeResource: font Helvetica
/Helvetica findfont
dup length dict begin
  {1 index /FID ne {def} {pop pop} ifelse} forall
  /Encoding WinAnsiEncoding def
  currentdict
  end
/Font1 exch definefont pop
%%IncludeResource: font Helvetica-Bold
/Helvetica-Bold findfont
dup length dict begin
  {1 index /FID ne {def} {pop pop} ifelse} forall
  /Encoding WinAnsiEncoding def
  currentdict
  end
/Font2 exch definefont pop
%%IncludeResource: font Helvetica-Oblique
/Helvetica-Oblique findfont
dup length dict begin
  {1 index /FID ne {def} {pop pop} ifelse} forall
  /Encoding WinAnsiEncoding def
  currentdict
  end
/Font3 exch definefont pop
%%IncludeResource: font Helvetica-BoldOblique
/Helvetica-BoldOblique findfont
dup length dict begin
  {1 index /FID ne {def} {pop pop} ifelse} forall
  /Encoding WinAnsiEncoding def
  currentdict
  end
/Font4 exch definefont pop
%%IncludeResource: font Symbol
/Symbol findfont
dup length dict begin
  {1 index /FID ne {def} {pop pop} ifelse} forall
  currentdict
  end
/Font5 exch definefont pop
%%EndProlog
%%Page: 1 1
bp
/bg { 1 1 1 srgb } def
0.00 0.00 442.80 302.40 r p2
0.00 0.00 442.80 302.40 cl
0.00 0.00 442.80 302.40 cl
0.00 0.00 442.80 302.40 cl
0.00 0.00 442.80 302.40 cl
0.00 0.00 442.80 302.40 cl
0.00 0.00 442.80 302.40 cl
0.00 0.00 442.80 302.40 cl
0.00 0.00 442.80 302.40 cl
0.00 0.00 442.80 302.40 cl
0.00 0.00 442.80 302.40 cl
0.00 0.00 442.80 302.40 cl
0.00 0.00 442.80 302.40 cl
0.00 0.00 442.80 302.40 cl
0.00 0.00 442.80 302.40 cl
0.00 0.00 442.80 302.40 cl
0.00 0.00 442.80 302.40 cl
/bg { 1 1 1 srgb } def
1 1 1 srgb
1.07 setlinewidth
[] 0 setdash
1 setlinecap
1 setlinejoin
10.00 setmiterlimit
0.00 0.00 442.80 302.40 r p3
0.00 0.00 442.80 302.40 cl
46.26 31.91 309.50 296.92 cl
/bg { 1 1 1 srgb } def
46.26 31.91 263.24 265.01 r p2
0.9216 0.9216 0.9216 srgb
0.53 setlinewidth
[] 0 setdash
0 setlinecap
1 setlinejoin
10.00 setmiterlimit
np
46.26 54.72 m
263.24 0 l
o
np
46.26 120.58 m
263.24 0 l
o
np
46.26 186.45 m
263.24 0 l
o
np
46.26 252.31 m
263.24 0 l
o
np
69.29 31.91 m
0 265.01 l
o
np
132.47 31.91 m
0 265.01 l
o
np
195.66 31.91 m
0 265.01 l
o
np
258.85 31.91 m
0 265.01 l
o
1.07 setlinewidth
[] 0 setdash
np
46.26 87.65 m
263.24 0 l
o
np
46.26 153.51 m
263.24 0 l
o
np
46.26 219.38 m
263.24 0 l
o
np
46.26 285.24 m
263.24 0 l
o
np
100.88 31.91 m
0 265.01 l
o
np
164.07 31.91 m
0 265.01 l
o
np
227.25 31.91 m
0 265.01 l
o
np
290.44 31.91 m
0 265.01 l
o
/bg { 0 0.7490 0.7686 srgb } def
0 0.7490 0.7686 srgb
0.71 setlinewidth
[] 0 setdash
1 setlinecap
256.02 31.91 1.95 c p3
/bg { 0.9725 0.4627 0.4275 srgb } def
0.9725 0.4627 0.4275 srgb
231.36 31.91 1.95 c p3
/bg { 0 0.7490 0.7686 srgb } def
0 0.7490 0.7686 srgb
200.72 261.77 1.95 c p3
62.65 132.83 1.95 c p3
/bg { 0.9725 0.4627 0.4275 srgb } def
0.9725 0.4627 0.4275 srgb
166.23 214.68 1.95 c p3
/bg { 0 0.7490 0.7686 srgb } def
0 0.7490 0.7686 srgb
207.67 57.68 1.95 c p3
70.86 53.99 1.95 c p3
/bg { 0.9725 0.4627 0.4275 srgb } def
0.9725 0.4627 0.4275 srgb
222.80 104.76 1.95 c p3
/bg { 0 0.7490 0.7686 srgb } def
0 0.7490 0.7686 srgb
64.23 139.48 1.95 c p3
/bg { 0.9725 0.4627 0.4275 srgb } def
0.9725 0.4627 0.4275 srgb
151.18 162.58 1.95 c p3
/bg { 0 0.7490 0.7686 srgb } def
0 0.7490 0.7686 srgb
116.04 53.36 1.95 c p3
188.81 50.75 1.95 c p3
154.90 92.28 1.95 c p3
190.29 276.22 1.95 c p3
/bg { 0.9725 0.4627 0.4275 srgb } def
0.9725 0.4627 0.4275 srgb
250.31 114.43 1.95 c p3
/bg { 0 0.7490 0.7686 srgb } def
0 0.7490 0.7686 srgb
155.07 51.93 1.95 c p3
159.33 162.12 1.95 c p3
/bg { 0.9725 0.4627 0.4275 srgb } def
0.9725 0.4627 0.4275 srgb
168.13 147.35 1.95 c p3
/bg { 0 0.7490 0.7686 srgb } def
0 0.7490 0.7686 srgb
198.84 113.82 1.95 c p3
87.29 277.69 1.95 c p3
223.15 264.34 1.95 c p3
/bg { 0.9725 0.4627 0.4275 srgb } def
0.9725 0.4627 0.4275 srgb
187.94 222.50 1.95 c p3
197.28 159.93 1.95 c p3
160.00 68.83 1.95 c p3
/bg { 0 0.7490 0.7686 srgb } def
0 0.7490 0.7686 srgb
85.40 31.91 1.95 c p3
250.95 211.43 1.95 c p3
/bg { 0.9725 0.4627 0.4275 srgb } def
0.9725 0.4627 0.4275 srgb
123.94 100.64 1.95 c p3
231.36 250.81 1.95 c p3
/bg { 0 0.7490 0.7686 srgb } def
0 0.7490 0.7686 srgb
117.31 132.25 1.95 c p3
/bg { 0.9725 0.4627 0.4275 srgb } def
0.9725 0.4627 0.4275 srgb
122.99 277.97 1.95 c p3
189.67 131.00 1.95 c p3
/bg { 0 0.7490 0.7686 srgb } def
0 0.7490 0.7686 srgb
122.05 256.12 1.95 c p3
76.55 219.68 1.95 c p3
/bg { 0.9725 0.4627 0.4275 srgb } def
0.9725 0.4627 0.4275 srgb
135.95 175.90 1.95 c p3
/bg { 0 0.7490 0.7686 srgb } def
0 0.7490 0.7686 srgb
262.64 106.94 1.95 c p3
122.68 43.96 1.95 c p3
225.65 56.06 1.95 c p3
104.67 204.88 1.95 c p3
/bg { 0.9725 0.4627 0.4275 srgb } def
0.9725 0.4627 0.4275 srgb
214.50 189.09 1.95 c p3
/bg { 0 0.7490 0.7686 srgb } def
0 0.7490 0.7686 srgb
102.14 225.76 1.95 c p3
119.84 187.84 1.95 c p3
210.83 215.45 1.95 c p3
97.09 275.48 1.95 c p3
110.18 31.91 1.95 c p3
/bg { 0.9725 0.4627 0.4275 srgb } def
0.9725 0.4627 0.4275 srgb
190.97 31.91 1.95 c p3
/bg { 0 0.7490 0.7686 srgb } def
0 0.7490 0.7686 srgb
129.31 215.79 1.95 c p3
243.68 31.91 1.95 c p3
122.68 31.91 1.95 c p3
/bg { 0.9725 0.4627 0.4275 srgb } def
0.9725 0.4627 0.4275 srgb
76.70 169.83 1.95 c p3
/bg { 0 0.7490 0.7686 srgb } def
0 0.7490 0.7686 srgb
249.18 31.91 1.95 c p3
/bg { 0.9725 0.4627 0.4275 srgb } def
0.9725 0.4627 0.4275 srgb
107.20 31.91 1.95 c p3
98.07 31.91 1.95 c p3
/bg { 0 0.7490 0.7686 srgb } def
0 0.7490 0.7686 srgb
297.54 31.91 1.95 c p3
217.46 31.91 1.95 c p3
127.65 31.91 1.95 c p3
/bg { 0.9725 0.4627 0.4275 srgb } def
0.9725 0.4627 0.4275 srgb
105.62 141.76 1.95 c p3
203.25 228.31 1.95 c p3
/bg { 0 0.7490 0.7686 srgb } def
0 0.7490 0.7686 srgb
117.36 237.30 1.95 c p3
/bg { 0.9725 0.4627 0.4275 srgb } def
0.9725 0.4627 0.4275 srgb
155.24 148.42 1.95 c p3
/bg { 0 0.7490 0.7686 srgb } def
0 0.7490 0.7686 srgb
58.23 31.91 1.95 c p3
187.68 251.47 1.95 c p3
107.83 273.21 1.95 c p3
86.66 259.59 1.95 c p3
185.55 31.91 1.95 c p3
208.79 31.91 1.95 c p3
169.75 284.87 1.95 c p3
/bg { 0.9725 0.4627 0.4275 srgb } def
0.9725 0.4627 0.4275 srgb
142.53 108.06 1.95 c p3
/bg { 0 0.7490 0.7686 srgb } def
0 0.7490 0.7686 srgb
179.72 31.91 1.95 c p3
144.16 31.91 1.95 c p3
98.98 246.53 1.95 c p3
/bg { 0.9725 0.4627 0.4275 srgb } def
0.9725 0.4627 0.4275 srgb
119.84 109.00 1.95 c p3
154.21 31.91 1.95 c p3
/bg { 0 0.7490 0.7686 srgb } def
0 0.7490 0.7686 srgb
155.85 31.91 1.95 c p3
201.35 31.91 1.95 c p3
124.36 216.79 1.95 c p3
105.93 244.93 1.95 c p3
170.73 189.18 1.95 c p3
86.74 167.90 1.95 c p3
81.20 275.43 1.95 c p3
75.75 31.91 1.95 c p3
90.63 229.25 1.95 c p3
78.69 195.60 1.95 c p3
204.89 281.93 1.95 c p3
/bg { 0.9725 0.4627 0.4275 srgb } def
0.9725 0.4627 0.4275 srgb
170.38 255.17 1.95 c p3
213.20 244.32 1.95 c p3
/bg { 0 0.7490 0.7686 srgb } def
0 0.7490 0.7686 srgb
126.01 173.72 1.95 c p3
89.42 277.92 1.95 c p3
174.01 215.26 1.95 c p3
/bg { 0.9725 0.4627 0.4275 srgb } def
0.9725 0.4627 0.4275 srgb
260.86 199.36 1.95 c p3
/bg { 0 0.7490 0.7686 srgb } def
0 0.7490 0.7686 srgb
107.50 267.67 1.95 c p3
/bg { 0.9725 0.4627 0.4275 srgb } def
0.9725 0.4627 0.4275 srgb
138.20 95.90 1.95 c p3
272.10 31.91 1.95 c p3
/bg { 0 0.7490 0.7686 srgb } def
0 0.7490 0.7686 srgb
223.49 248.80 1.95 c p3
79.73 265.86 1.95 c p3
/bg { 0.9725 0.4627 0.4275 srgb } def
0.9725 0.4627 0.4275 srgb
115.54 31.91 1.95 c p3
202.91 185.63 1.95 c p3
68.57 118.17 1.95 c p3
/bg { 0 0.7490 0.7686 srgb } def
0 0.7490 0.7686 srgb
217.78 31.91 1.95 c p3
168.13 283.07 1.95 c p3
0.9725 0.4627 0.4275 srgb
2.13 setlinewidth
[] 0 setdash
0 setlinecap
np
68.57 135.07 m
2.44 0.77 l
2.43 0.76 l
2.43 0.76 l
2.44 0.76 l
2.43 0.76 l
2.44 0.76 l
2.43 0.76 l
2.43 0.77 l
2.44 0.76 l
2.43 0.76 l
2.44 0.76 l
2.43 0.76 l
2.43 0.76 l
2.44 0.77 l
2.43 0.76 l
2.44 0.76 l
2.43 0.76 l
2.43 0.76 l
2.44 0.76 l
2.43 0.77 l
2.44 0.76 l
2.43 0.76 l
2.43 0.76 l
2.44 0.76 l
2.43 0.76 l
2.44 0.76 l
2.43 0.77 l
2.43 0.76 l
2.44 0.76 l
2.43 0.76 l
2.44 0.76 l
2.43 0.76 l
2.43 0.77 l
2.44 0.76 l
2.43 0.76 l
2.44 0.76 l
2.43 0.76 l
2.43 0.76 l
2.44 0.77 l
2.43 0.76 l
2.44 0.76 l
2.43 0.76 l
2.43 0.76 l
2.44 0.76 l
2.43 0.76 l
2.44 0.77 l
2.43 0.76 l
2.43 0.76 l
2.44 0.76 l
2.43 0.76 l
2.44 0.76 l
2.43 0.77 l
2.44 0.76 l
2.43 0.76 l
2.43 0.76 l
2.44 0.76 l
2.43 0.76 l
2.44 0.76 l
2.43 0.77 l
2.43 0.76 l
2.44 0.76 l
2.43 0.76 l
2.44 0.76 l
2.43 0.76 l
2.43 0.77 l
2.44 0.76 l
2.43 0.76 l
2.44 0.76 l
2.43 0.76 l
2.43 0.76 l
2.44 0.77 l
2.43 0.76 l
2.44 0.76 l
2.43 0.76 l
2.43 0.76 l
2.44 0.76 l
2.43 0.76 l
2.44 0.77 l
2.43 0.76 l
o
0 0.7490 0.7686 srgb
np
62.65 210.20 m
2.53 -0.45 l
2.53 -0.46 l
2.53 -0.45 l
2.54 -0.46 l
2.53 -0.45 l
2.53 -0.46 l
2.53 -0.45 l
2.53 -0.46 l
2.53 -0.45 l
2.54 -0.45 l
2.53 -0.46 l
2.53 -0.45 l
2.53 -0.46 l
2.53 -0.45 l
2.53 -0.46 l
2.53 -0.45 l
2.54 -0.46 l
2.53 -0.45 l
2.53 -0.46 l
2.53 -0.45 l
2.53 -0.46 l
2.53 -0.45 l
2.54 -0.46 l
2.53 -0.45 l
2.53 -0.46 l
2.53 -0.45 l
2.53 -0.46 l
2.53 -0.45 l
2.53 -0.45 l
2.54 -0.46 l
2.53 -0.45 l
2.53 -0.46 l
2.53 -0.45 l
2.53 -0.46 l
2.53 -0.45 l
2.53 -0.46 l
2.54 -0.45 l
2.53 -0.46 l
2.53 -0.45 l
2.53 -0.46 l
2.53 -0.45 l
2.53 -0.46 l
2.54 -0.45 l
2.53 -0.46 l
2.53 -0.45 l
2.53 -0.46 l
2.53 -0.45 l
2.53 -0.45 l
2.53 -0.46 l
2.54 -0.45 l
2.53 -0.46 l
2.53 -0.45 l
2.53 -0.46 l
2.53 -0.45 l
2.53 -0.46 l
2.54 -0.45 l
2.53 -0.46 l
2.53 -0.45 l
2.53 -0.46 l
2.53 -0.45 l
2.53 -0.46 l
2.53 -0.45 l
2.54 -0.46 l
2.53 -0.45 l
2.53 -0.45 l
2.53 -0.46 l
2.53 -0.45 l
2.53 -0.46 l
2.54 -0.45 l
2.53 -0.46 l
2.53 -0.45 l
2.53 -0.46 l
2.53 -0.45 l
2.53 -0.46 l
2.53 -0.45 l
2.54 -0.46 l
2.53 -0.45 l
2.53 -0.46 l
2.53 -0.45 l
o
0.2000 0.2000 0.2000 srgb
1.07 setlinewidth
[] 0 setdash
1 setlinecap
46.26 31.91 263.24 265.01 r p1
0.00 0.00 442.80 302.40 cl
0.00 0.00 442.80 302.40 cl
0.00 0.00 442.80 302.40 cl
0.00 0.00 442.80 302.40 cl
0.00 0.00 442.80 302.40 cl
0.00 0.00 442.80 302.40 cl
0.00 0.00 442.80 302.40 cl
0.00 0.00 442.80 302.40 cl
0.00 0.00 442.80 302.40 cl
0.00 0.00 442.80 302.40 cl
0.00 0.00 442.80 302.40 cl
0.00 0.00 442.80 302.40 cl
0.00 0.00 442.80 302.40 cl
0.00 0.00 442.80 302.40 cl
0.00 0.00 442.80 302.40 cl
0.00 0.00 442.80 302.40 cl
/Font1 findfont 9 s
0.3020 0.3020 0.3020 srgb
41.33 84.42 (0.001) 1 0 t
41.33 150.28 (0.010) 1 0 t
41.33 216.15 (0.100) 1 0 t
41.33 282.01 (1.000) 1 0 t
0.00 0.00 442.80 302.40 cl
0.00 0.00 442.80 302.40 cl
0.2000 0.2000 0.2000 srgb
1.07 setlinewidth
[] 0 setdash
0 setlinecap
1 setlinejoin
10.00 setmiterlimit
np
43.52 87.65 m
2.74 0 l
o
np
43.52 153.51 m
2.74 0 l
o
np
43.52 219.38 m
2.74 0 l
o
np
43.52 285.24 m
2.74 0 l
o
0.00 0.00 442.80 302.40 cl
0.00 0.00 442.80 302.40 cl
0.00 0.00 442.80 302.40 cl
0.00 0.00 442.80 302.40 cl
0.00 0.00 442.80 302.40 cl
0.00 0.00 442.80 302.40 cl
0.00 0.00 442.80 302.40 cl
0.00 0.00 442.80 302.40 cl
0.00 0.00 442.80 302.40 cl
0.00 0.00 442.80 302.40 cl
0.2000 0.2000 0.2000 srgb
1.07 setlinewidth
[] 0 setdash
0 setlinecap
1 setlinejoin
10.00 setmiterlimit
np
100.88 29.17 m
0 2.74 l
o
np
164.07 29.17 m
0 2.74 l
o
np
227.25 29.17 m
0 2.74 l
o
np
290.44 29.17 m
0 2.74 l
o
0.00 0.00 442.80 302.40 cl
0.00 0.00 442.80 302.40 cl
/Font1 findfont 9 s
0.3020 0.3020 0.3020 srgb
100.88 20.52 (2) .5 0 t
164.07 20.52 (4) .5 0 t
227.25 20.52 (6) .5 0 t
290.44 20.52 (8) .5 0 t
0.00 0.00 442.80 302.40 cl
0.00 0.00 442.80 302.40 cl
0.00 0.00 442.80 302.40 cl
0.00 0.00 442.80 302.40 cl
0.00 0.00 442.80 302.40 cl
0.00 0.00 442.80 302.40 cl
/Font1 findfont 11 s
0 0 0 srgb
147.31 7.90 (Age in y) 0 ta
-0.220 (ears) tb gr
0.00 0.00 442.80 302.40 cl
0.00 0.00 442.80 302.40 cl
/Font1 findfont 11 s
0 0 0 srgb
13.49 82.43 (Relativ) 90 ta
-0.275 (e ab) tb
-0.220 (undance ) tb gr
/Font3 findfont 11 s
13.49 182.21 (H. influenzae) 0 90 t
0.00 0.00 442.80 302.40 cl
0.00 0.00 442.80 302.40 cl
0.00 0.00 442.80 302.40 cl
0.00 0.00 442.80 302.40 cl
0.00 0.00 442.80 302.40 cl
0.00 0.00 442.80 302.40 cl
0.00 0.00 442.80 302.40 cl
0.00 0.00 442.80 302.40 cl
/bg { 1 1 1 srgb } def
320.46 133.76 116.86 61.32 r p2
0.00 0.00 442.80 302.40 cl
0.00 0.00 442.80 302.40 cl
0.00 0.00 442.80 302.40 cl
0.00 0.00 442.80 302.40 cl
0.00 0.00 442.80 302.40 cl
0.00 0.00 442.80 302.40 cl
0.00 0.00 442.80 302.40 cl
/bg { 1 1 1 srgb } def
325.94 156.52 17.28 17.28 r p2
0.00 0.00 442.80 302.40 cl
0.00 0.00 442.80 302.40 cl
/bg { 0.9725 0.4627 0.4275 srgb } def
0.9725 0.4627 0.4275 srgb
0.71 setlinewidth
[] 0 setdash
1 setlinecap
1 setlinejoin
10.00 setmiterlimit
334.58 165.16 1.95 c p3
0.00 0.00 442.80 302.40 cl
0.00 0.00 442.80 302.40 cl
0.9725 0.4627 0.4275 srgb
2.13 setlinewidth
[] 0 setdash
0 setlinecap
1 setlinejoin
10.00 setmiterlimit
np
327.67 165.16 m
13.82 0 l
o
0.00 0.00 442.80 302.40 cl
0.00 0.00 442.80 302.40 cl
/bg { 1 1 1 srgb } def
325.94 139.24 17.28 17.28 r p2
0.00 0.00 442.80 302.40 cl
0.00 0.00 442.80 302.40 cl
/bg { 0 0.7490 0.7686 srgb } def
0 0.7490 0.7686 srgb
0.71 setlinewidth
[] 0 setdash
1 setlinecap
1 setlinejoin
10.00 setmiterlimit
334.58 147.88 1.95 c p3
0.00 0.00 442.80 302.40 cl
0.00 0.00 442.80 302.40 cl
0 0.7490 0.7686 srgb
2.13 setlinewidth
[] 0 setdash
0 setlinecap
1 setlinejoin
10.00 setmiterlimit
np
327.67 147.88 m
13.82 0 l
o
0.00 0.00 442.80 302.40 cl
0.00 0.00 442.80 302.40 cl
0.00 0.00 442.80 302.40 cl
0.00 0.00 442.80 302.40 cl
/Font1 findfont 9 s
0 0 0 srgb
348.70 161.93 (Non-carr) 0 ta
0.135 (iers) tb gr
0.00 0.00 442.80 302.40 cl
0.00 0.00 442.80 302.40 cl
0.00 0.00 442.80 302.40 cl
0.00 0.00 442.80 302.40 cl
0.00 0.00 442.80 302.40 cl
/Font3 findfont 9 s
0 0 0 srgb
348.70 145.61 (Mycoplasma ) 0 0 t
/Font1 findfont 9 s
401.71 145.61 (carr) 0 ta
0.135 (iers) tb gr
0.00 0.00 442.80 302.40 cl
0.00 0.00 442.80 302.40 cl
0.00 0.00 442.80 302.40 cl
0.00 0.00 442.80 302.40 cl
0.00 0.00 442.80 302.40 cl
0.00 0.00 442.80 302.40 cl
0.00 0.00 442.80 302.40 cl
0.00 0.00 442.80 302.40 cl
0.00 0.00 442.80 302.40 cl
0.00 0.00 442.80 302.40 cl
0.00 0.00 442.80 302.40 cl
0.00 0.00 442.80 302.40 cl
0.00 0.00 442.80 302.40 cl
ep
%%Trailer
%%Pages: 1
%%EOF
