%!PS-Adobe-3.0 EPSF-3.0
%%DocumentNeededResources: font Helvetica
%%+ font Helvetica-Bold
%%+ font Helvetica-Oblique
%%+ font Helvetica-BoldOblique
%%+ font Symbol
%%Title: R Graphics Output
%%Creator: R Software
%%Pages: (atend)
%%BoundingBox: 0 0 525 360
%%EndComments
%%BeginProlog
/bp  { gs sRGB gs } def
% begin .ps.prolog
/gs  { gsave } bind def
/gr  { grestore } bind def
/ep  { showpage gr gr } bind def
/m   { moveto } bind def
/l  { rlineto } bind def
/np  { newpath } bind def
/cp  { closepath } bind def
/f   { fill } bind def
/o   { stroke } bind def
/c   { newpath 0 360 arc } bind def
/r   { 4 2 roll moveto 1 copy 3 -1 roll exch 0 exch rlineto 0 rlineto -1 mul 0 exch rlineto closepath } bind def
/p1  { stroke } bind def
/p2  { gsave bg fill grestore newpath } bind def
/p3  { gsave bg fill grestore stroke } bind def
/p6  { gsave bg eofill grestore newpath } bind def
/p7  { gsave bg eofill grestore stroke } bind def
/t   { 5 -2 roll moveto gsave rotate
       1 index stringwidth pop
       mul neg 0 rmoveto show grestore } bind def
/ta  { 4 -2 roll moveto gsave rotate show } bind def
/tb  { 2 -1 roll 0 rmoveto show } bind def
/cl  { grestore gsave newpath 3 index 3 index moveto 1 index
       4 -1 roll lineto  exch 1 index lineto lineto
       closepath clip newpath } bind def
/rgb { setrgbcolor } bind def
/s   { scalefont setfont } bind def
% end   .ps.prolog
/sRGB { [ /CIEBasedABC
          << /DecodeLMN
               [ { dup 0.03928 le
                        {12.92321 div}
                        {0.055 add 1.055 div 2.4 exp }
                     ifelse
                 } bind dup dup
               ]
             /MatrixLMN [0.412457 0.212673 0.019334
                         0.357576 0.715152 0.119192
                         0.180437 0.072175 0.950301]
             /WhitePoint [0.9505 1.0 1.0890]
           >>
         ] setcolorspace } bind def
/srgb { setcolor } bind def
% begin encoding
/WinAnsiEncoding [
 /.notdef /.notdef /.notdef /.notdef /.notdef /.notdef /.notdef /.notdef
 /.notdef /.notdef /.notdef /.notdef /.notdef /.notdef /.notdef /.notdef
 /.notdef /.notdef /.notdef /.notdef /.notdef /.notdef /.notdef /.notdef
 /.notdef /.notdef /.notdef /.notdef /.notdef /.notdef /.notdef /.notdef
 /space /exclam /quotedbl /numbersign /dollar /percent /ampersand /quoteright
 /parenleft /parenright /asterisk /plus /comma /minus /period /slash
 /zero /one /two /three /four /five /six /seven
 /eight /nine /colon /semicolon /less /equal /greater /question
 /at /A /B /C /D /E /F /G
 /H /I /J /K /L /M /N /O
 /P /Q /R /S /T /U /V /W
 /X /Y /Z /bracketleft /backslash /bracketright /asciicircum /underscore
 /grave /a /b /c /d /e /f /g
 /h /i /j /k /l /m /n /o
 /p /q /r /s /t /u /v /w
 /x /y /z /braceleft /bar /braceright /asciitilde /.notdef
 /Euro /.notdef /quotesinglbase /florin /quotedblbase /ellipsis /dagger /daggerdbl
 /circumflex /perthousand /Scaron /guilsinglleft /OE /.notdef /Zcaron /.notdef
 /.notdef /quoteleft /quoteright /quotedblleft /quotedblright /bullet /endash /emdash
 /tilde /trademark /scaron /guilsinglright /oe /.notdef /zcaron /Ydieresis
 /space /exclamdown /cent /sterling /currency /yen /brokenbar /section
 /dieresis /copyright /ordfeminine /guillemotleft /logicalnot /hyphen /registered /macron
 /degree /plusminus /twosuperior /threesuperior /acute /mu /paragraph /periodcentered
 /cedilla /onesuperior /ordmasculine /guillemotright /onequarter /onehalf /threequarters /questiondown
 /Agrave /Aacute /Acircumflex /Atilde /Adieresis /Aring /AE /Ccedilla
 /Egrave /Eacute /Ecircumflex /Edieresis /Igrave /Iacute /Icircumflex /Idieresis
 /Eth /Ntilde /Ograve /Oacute /Ocircumflex /Otilde /Odieresis /multiply
 /Oslash /Ugrave /Uacute /Ucircumflex /Udieresis /Yacute /Thorn /germandbls
 /agrave /aacute /acircumflex /atilde /adieresis /aring /ae /ccedilla
 /egrave /eacute /ecircumflex /edieresis /igrave /iacute /icircumflex /idieresis
 /eth /ntilde /ograve /oacute /ocircumflex /otilde /odieresis /divide
 /oslash /ugrave /uacute /ucircumflex /udieresis /yacute /thorn /ydieresis
]
 def
% end encoding
%%IncludeResource: font Helvetica
/Helvetica findfont
dup length dict begin
  {1 index /FID ne {def} {pop pop} ifelse} forall
  /Encoding WinAnsiEncoding def
  currentdict
  end
/Font1 exch definefont pop
%%IncludeResource: font Helvetica-Bold
/Helvetica-Bold findfont
dup length dict begin
  {1 index /FID ne {def} {pop pop} ifelse} forall
  /Encoding WinAnsiEncoding def
  currentdict
  end
/Font2 exch definefont pop
%%IncludeResource: font Helvetica-Oblique
/Helvetica-Oblique findfont
dup length dict begin
  {1 index /FID ne {def} {pop pop} ifelse} forall
  /Encoding WinAnsiEncoding def
  currentdict
  end
/Font3 exch definefont pop
%%IncludeResource: font Helvetica-BoldOblique
/Helvetica-BoldOblique findfont
dup length dict begin
  {1 index /FID ne {def} {pop pop} ifelse} forall
  /Encoding WinAnsiEncoding def
  currentdict
  end
/Font4 exch definefont pop
%%IncludeResource: font Symbol
/Symbol findfont
dup length dict begin
  {1 index /FID ne {def} {pop pop} ifelse} forall
  currentdict
  end
/Font5 exch definefont pop
%%EndProlog
%%Page: 1 1
bp
/bg { 1 1 1 srgb } def
0.00 0.00 524.67 360.00 r p2
0.00 0.00 524.67 360.00 cl
0.00 0.00 524.67 360.00 cl
0.00 0.00 524.67 360.00 cl
0.00 0.00 524.67 360.00 cl
0.00 0.00 524.67 360.00 cl
0.00 0.00 524.67 360.00 cl
0.00 0.00 524.67 360.00 cl
0.00 0.00 524.67 360.00 cl
0.00 0.00 524.67 360.00 cl
0.00 0.00 524.67 360.00 cl
0.00 0.00 524.67 360.00 cl
0.00 0.00 524.67 360.00 cl
/bg { 1 1 1 srgb } def
1 1 1 srgb
1.07 setlinewidth
[] 0 setdash
1 setlinecap
1 setlinejoin
10.00 setmiterlimit
0.00 0.00 524.67 360.00 r p3
0.00 0.00 524.67 360.00 cl
63.79 38.48 519.19 332.16 cl
/bg { 1 1 1 srgb } def
63.79 38.48 455.40 293.68 r p2
0.9216 0.9216 0.9216 srgb
0.53 setlinewidth
[] 0 setdash
0 setlinecap
1 setlinejoin
10.00 setmiterlimit
np
63.79 94.31 m
455.40 0 l
o
np
63.79 158.95 m
455.40 0 l
o
np
63.79 223.60 m
455.40 0 l
o
np
63.79 288.24 m
455.40 0 l
o
np
116.80 38.48 m
0 293.68 l
o
np
254.74 38.48 m
0 293.68 l
o
np
392.67 38.48 m
0 293.68 l
o
1.07 setlinewidth
[] 0 setdash
np
63.79 60.51 m
455.40 0 l
o
np
63.79 128.11 m
455.40 0 l
o
np
63.79 189.80 m
455.40 0 l
o
np
63.79 257.40 m
455.40 0 l
o
np
63.79 319.08 m
455.40 0 l
o
np
185.77 38.48 m
0 293.68 l
o
np
323.70 38.48 m
0 293.68 l
o
np
461.63 38.48 m
0 293.68 l
o
/bg { 0 0 0 srgb } def
0 0 0 srgb
0.71 setlinewidth
[] 0 setdash
1 setlinecap
176.42 82.52 1.95 c p3
425.24 225.23 1.95 c p3
285.88 146.62 1.95 c p3
382.59 160.75 1.95 c p3
170.53 180.87 1.95 c p3
407.68 174.98 1.95 c p3
313.39 93.88 1.95 c p3
461.94 77.91 1.95 c p3
482.63 247.63 1.95 c p3
260.41 73.93 1.95 c p3
300.91 149.01 1.95 c p3
381.83 79.07 1.95 c p3
480.31 78.19 1.95 c p3
388.50 126.14 1.95 c p3
331.31 79.20 1.95 c p3
320.52 171.74 1.95 c p3
406.79 138.35 1.95 c p3
295.68 111.43 1.95 c p3
498.49 51.83 1.95 c p3
233.66 73.93 1.95 c p3
326.92 170.14 1.95 c p3
234.23 96.75 1.95 c p3
389.29 318.81 1.95 c p3
427.75 240.81 1.95 c p3
180.11 77.22 1.95 c p3
348.08 208.10 1.95 c p3
302.22 252.35 1.95 c p3
292.23 69.49 1.95 c p3
341.01 91.83 1.95 c p3
292.23 117.24 1.95 c p3
372.01 79.80 1.95 c p3
275.38 132.38 1.95 c p3
122.20 122.88 1.95 c p3
204.25 58.22 1.95 c p3
295.29 146.07 1.95 c p3
475.23 289.45 1.95 c p3
260.72 129.55 1.95 c p3
316.52 250.82 1.95 c p3
215.05 80.73 1.95 c p3
156.13 79.80 1.95 c p3
405.10 117.38 1.95 c p3
247.62 52.91 1.95 c p3
253.98 118.39 1.95 c p3
411.75 104.27 1.95 c p3
240.97 75.10 1.95 c p3
386.85 101.99 1.95 c p3
262.72 118.92 1.95 c p3
394.24 101.90 1.95 c p3
273.07 86.55 1.95 c p3
321.13 113.22 1.95 c p3
235.29 70.75 1.95 c p3
161.84 178.62 1.95 c p3
374.42 174.44 1.95 c p3
417.55 226.66 1.95 c p3
315.23 189.01 1.95 c p3
332.61 183.02 1.95 c p3
212.02 153.60 1.95 c p3
400.44 110.75 1.95 c p3
420.69 68.20 1.95 c p3
218.73 138.68 1.95 c p3
163.39 91.07 1.95 c p3
91.04 105.71 1.95 c p3
462.20 170.06 1.95 c p3
256.66 187.37 1.95 c p3
441.19 109.12 1.95 c p3
0.2000 0.4000 1 srgb
2.13 setlinewidth
[] 0 setdash
0 setlinecap
np
91.04 94.45 m
5.16 0.90 l
5.16 0.90 l
5.15 0.89 l
5.16 0.90 l
5.16 0.90 l
5.16 0.90 l
5.15 0.89 l
5.16 0.90 l
5.16 0.90 l
5.16 0.90 l
5.15 0.90 l
5.16 0.89 l
5.16 0.90 l
5.16 0.90 l
5.15 0.90 l
5.16 0.89 l
5.16 0.90 l
5.16 0.90 l
5.15 0.90 l
5.16 0.90 l
5.16 0.89 l
5.16 0.90 l
5.15 0.90 l
5.16 0.90 l
5.16 0.90 l
5.16 0.89 l
5.15 0.90 l
5.16 0.90 l
5.16 0.90 l
5.16 0.89 l
5.15 0.90 l
5.16 0.90 l
5.16 0.90 l
5.16 0.90 l
5.15 0.89 l
5.16 0.90 l
5.16 0.90 l
5.16 0.90 l
5.16 0.89 l
5.15 0.90 l
5.16 0.90 l
5.16 0.90 l
5.16 0.90 l
5.15 0.89 l
5.16 0.90 l
5.16 0.90 l
5.16 0.90 l
5.15 0.90 l
5.16 0.89 l
5.16 0.90 l
5.16 0.90 l
5.15 0.90 l
5.16 0.89 l
5.16 0.90 l
5.16 0.90 l
5.15 0.90 l
5.16 0.90 l
5.16 0.89 l
5.16 0.90 l
5.15 0.90 l
5.16 0.90 l
5.16 0.89 l
5.16 0.90 l
5.15 0.90 l
5.16 0.90 l
5.16 0.90 l
5.16 0.89 l
5.15 0.90 l
5.16 0.90 l
5.16 0.90 l
5.16 0.89 l
5.15 0.90 l
5.16 0.90 l
5.16 0.90 l
5.16 0.90 l
5.15 0.89 l
5.16 0.90 l
5.16 0.90 l
5.16 0.90 l
o
0.2000 0.2000 0.2000 srgb
1.07 setlinewidth
[] 0 setdash
1 setlinecap
63.79 38.48 455.40 293.68 r p1
0.00 0.00 524.67 360.00 cl
0.00 0.00 524.67 360.00 cl
0.00 0.00 524.67 360.00 cl
0.00 0.00 524.67 360.00 cl
0.00 0.00 524.67 360.00 cl
0.00 0.00 524.67 360.00 cl
0.00 0.00 524.67 360.00 cl
0.00 0.00 524.67 360.00 cl
0.00 0.00 524.67 360.00 cl
0.00 0.00 524.67 360.00 cl
0.00 0.00 524.67 360.00 cl
0.00 0.00 524.67 360.00 cl
0.00 0.00 524.67 360.00 cl
0.00 0.00 524.67 360.00 cl
0.00 0.00 524.67 360.00 cl
0.00 0.00 524.67 360.00 cl
/Font1 findfont 12 s
0.3020 0.3020 0.3020 srgb
58.86 56.20 (300) 1 0 t
58.86 123.80 (1000) 1 0 t
58.86 185.49 (3000) 1 0 t
58.86 253.09 (10000) 1 0 t
58.86 314.77 (30000) 1 0 t
0.00 0.00 524.67 360.00 cl
0.00 0.00 524.67 360.00 cl
0.2000 0.2000 0.2000 srgb
1.07 setlinewidth
[] 0 setdash
0 setlinecap
1 setlinejoin
10.00 setmiterlimit
np
61.05 60.51 m
2.74 0 l
o
np
61.05 128.11 m
2.74 0 l
o
np
61.05 189.80 m
2.74 0 l
o
np
61.05 257.40 m
2.74 0 l
o
np
61.05 319.08 m
2.74 0 l
o
0.00 0.00 524.67 360.00 cl
0.00 0.00 524.67 360.00 cl
0.00 0.00 524.67 360.00 cl
0.00 0.00 524.67 360.00 cl
0.00 0.00 524.67 360.00 cl
0.00 0.00 524.67 360.00 cl
0.00 0.00 524.67 360.00 cl
0.00 0.00 524.67 360.00 cl
0.00 0.00 524.67 360.00 cl
0.00 0.00 524.67 360.00 cl
0.2000 0.2000 0.2000 srgb
1.07 setlinewidth
[] 0 setdash
0 setlinecap
1 setlinejoin
10.00 setmiterlimit
np
185.77 35.74 m
0 2.74 l
o
np
323.70 35.74 m
0 2.74 l
o
np
461.63 35.74 m
0 2.74 l
o
0.00 0.00 524.67 360.00 cl
0.00 0.00 524.67 360.00 cl
/Font1 findfont 12 s
0.3020 0.3020 0.3020 srgb
185.77 24.93 (1) .5 0 t
323.70 24.93 (10) .5 0 t
461.63 24.93 (100) .5 0 t
0.00 0.00 524.67 360.00 cl
0.00 0.00 524.67 360.00 cl
0.00 0.00 524.67 360.00 cl
0.00 0.00 524.67 360.00 cl
0.00 0.00 524.67 360.00 cl
0.00 0.00 524.67 360.00 cl
/Font1 findfont 15 s
0 0 0 srgb
291.49 8.78 (16S pg/ul) .5 0 t
0.00 0.00 524.67 360.00 cl
0.00 0.00 524.67 360.00 cl
/Font3 findfont 15 s
0 0 0 srgb
16.25 88.49 (M. pneumoniae ) 0 90 t
/Font1 findfont 15 s
16.25 196.04 (cop) 90 ta
-0.450 (y n) tb
-0.150 (umber) tb gr
0.00 0.00 524.67 360.00 cl
0.00 0.00 524.67 360.00 cl
0.00 0.00 524.67 360.00 cl
0.00 0.00 524.67 360.00 cl
0.00 0.00 524.67 360.00 cl
0.00 0.00 524.67 360.00 cl
/Font1 findfont 18 s
0 0 0 srgb
63.79 341.60 (Spear) 0 ta
0.450 (man correlation coefficient 0.19 \(p=0.28\)) tb gr
0.00 0.00 524.67 360.00 cl
0.00 0.00 524.67 360.00 cl
0.00 0.00 524.67 360.00 cl
0.00 0.00 524.67 360.00 cl
0.00 0.00 524.67 360.00 cl
0.00 0.00 524.67 360.00 cl
ep
%%Trailer
%%Pages: 1
%%EOF
