%!PS-Adobe-3.0 EPSF-3.0
%%DocumentNeededResources: font Helvetica
%%+ font Helvetica-Bold
%%+ font Helvetica-Oblique
%%+ font Helvetica-BoldOblique
%%+ font Symbol
%%Title: R Graphics Output
%%Creator: R Software
%%Pages: (atend)
%%BoundingBox: 0 0 525 324
%%EndComments
%%BeginProlog
/bp  { gs sRGB gs } def
% begin .ps.prolog
/gs  { gsave } bind def
/gr  { grestore } bind def
/ep  { showpage gr gr } bind def
/m   { moveto } bind def
/l  { rlineto } bind def
/np  { newpath } bind def
/cp  { closepath } bind def
/f   { fill } bind def
/o   { stroke } bind def
/c   { newpath 0 360 arc } bind def
/r   { 4 2 roll moveto 1 copy 3 -1 roll exch 0 exch rlineto 0 rlineto -1 mul 0 exch rlineto closepath } bind def
/p1  { stroke } bind def
/p2  { gsave bg fill grestore newpath } bind def
/p3  { gsave bg fill grestore stroke } bind def
/p6  { gsave bg eofill grestore newpath } bind def
/p7  { gsave bg eofill grestore stroke } bind def
/t   { 5 -2 roll moveto gsave rotate
       1 index stringwidth pop
       mul neg 0 rmoveto show grestore } bind def
/ta  { 4 -2 roll moveto gsave rotate show } bind def
/tb  { 2 -1 roll 0 rmoveto show } bind def
/cl  { grestore gsave newpath 3 index 3 index moveto 1 index
       4 -1 roll lineto  exch 1 index lineto lineto
       closepath clip newpath } bind def
/rgb { setrgbcolor } bind def
/s   { scalefont setfont } bind def
% end   .ps.prolog
/sRGB { [ /CIEBasedABC
          << /DecodeLMN
               [ { dup 0.03928 le
                        {12.92321 div}
                        {0.055 add 1.055 div 2.4 exp }
                     ifelse
                 } bind dup dup
               ]
             /MatrixLMN [0.412457 0.212673 0.019334
                         0.357576 0.715152 0.119192
                         0.180437 0.072175 0.950301]
             /WhitePoint [0.9505 1.0 1.0890]
           >>
         ] setcolorspace } bind def
/srgb { setcolor } bind def
% begin encoding
/WinAnsiEncoding [
 /.notdef /.notdef /.notdef /.notdef /.notdef /.notdef /.notdef /.notdef
 /.notdef /.notdef /.notdef /.notdef /.notdef /.notdef /.notdef /.notdef
 /.notdef /.notdef /.notdef /.notdef /.notdef /.notdef /.notdef /.notdef
 /.notdef /.notdef /.notdef /.notdef /.notdef /.notdef /.notdef /.notdef
 /space /exclam /quotedbl /numbersign /dollar /percent /ampersand /quoteright
 /parenleft /parenright /asterisk /plus /comma /minus /period /slash
 /zero /one /two /three /four /five /six /seven
 /eight /nine /colon /semicolon /less /equal /greater /question
 /at /A /B /C /D /E /F /G
 /H /I /J /K /L /M /N /O
 /P /Q /R /S /T /U /V /W
 /X /Y /Z /bracketleft /backslash /bracketright /asciicircum /underscore
 /grave /a /b /c /d /e /f /g
 /h /i /j /k /l /m /n /o
 /p /q /r /s /t /u /v /w
 /x /y /z /braceleft /bar /braceright /asciitilde /.notdef
 /Euro /.notdef /quotesinglbase /florin /quotedblbase /ellipsis /dagger /daggerdbl
 /circumflex /perthousand /Scaron /guilsinglleft /OE /.notdef /Zcaron /.notdef
 /.notdef /quoteleft /quoteright /quotedblleft /quotedblright /bullet /endash /emdash
 /tilde /trademark /scaron /guilsinglright /oe /.notdef /zcaron /Ydieresis
 /space /exclamdown /cent /sterling /currency /yen /brokenbar /section
 /dieresis /copyright /ordfeminine /guillemotleft /logicalnot /hyphen /registered /macron
 /degree /plusminus /twosuperior /threesuperior /acute /mu /paragraph /periodcentered
 /cedilla /onesuperior /ordmasculine /guillemotright /onequarter /onehalf /threequarters /questiondown
 /Agrave /Aacute /Acircumflex /Atilde /Adieresis /Aring /AE /Ccedilla
 /Egrave /Eacute /Ecircumflex /Edieresis /Igrave /Iacute /Icircumflex /Idieresis
 /Eth /Ntilde /Ograve /Oacute /Ocircumflex /Otilde /Odieresis /multiply
 /Oslash /Ugrave /Uacute /Ucircumflex /Udieresis /Yacute /Thorn /germandbls
 /agrave /aacute /acircumflex /atilde /adieresis /aring /ae /ccedilla
 /egrave /eacute /ecircumflex /edieresis /igrave /iacute /icircumflex /idieresis
 /eth /ntilde /ograve /oacute /ocircumflex /otilde /odieresis /divide
 /oslash /ugrave /uacute /ucircumflex /udieresis /yacute /thorn /ydieresis
]
 def
% end encoding
%%IncludeResource: font Helvetica
/Helvetica findfont
dup length dict begin
  {1 index /FID ne {def} {pop pop} ifelse} forall
  /Encoding WinAnsiEncoding def
  currentdict
  end
/Font1 exch definefont pop
%%IncludeResource: font Helvetica-Bold
/Helvetica-Bold findfont
dup length dict begin
  {1 index /FID ne {def} {pop pop} ifelse} forall
  /Encoding WinAnsiEncoding def
  currentdict
  end
/Font2 exch definefont pop
%%IncludeResource: font Helvetica-Oblique
/Helvetica-Oblique findfont
dup length dict begin
  {1 index /FID ne {def} {pop pop} ifelse} forall
  /Encoding WinAnsiEncoding def
  currentdict
  end
/Font3 exch definefont pop
%%IncludeResource: font Helvetica-BoldOblique
/Helvetica-BoldOblique findfont
dup length dict begin
  {1 index /FID ne {def} {pop pop} ifelse} forall
  /Encoding WinAnsiEncoding def
  currentdict
  end
/Font4 exch definefont pop
%%IncludeResource: font Symbol
/Symbol findfont
dup length dict begin
  {1 index /FID ne {def} {pop pop} ifelse} forall
  currentdict
  end
/Font5 exch definefont pop
%%EndProlog
%%Page: 1 1
bp
/bg { 1 1 1 srgb } def
0.00 0.00 524.67 324.00 r p2
0.00 0.00 524.67 324.00 cl
0.00 0.00 524.67 324.00 cl
0.00 0.00 524.67 324.00 cl
0.00 0.00 524.67 324.00 cl
0.00 0.00 524.67 324.00 cl
0.00 0.00 524.67 324.00 cl
0.00 0.00 524.67 324.00 cl
0.00 0.00 524.67 324.00 cl
0.00 0.00 524.67 324.00 cl
0.00 0.00 524.67 324.00 cl
0.00 0.00 524.67 324.00 cl
0.00 0.00 524.67 324.00 cl
0.00 0.00 524.67 324.00 cl
0.00 0.00 524.67 324.00 cl
0.00 0.00 524.67 324.00 cl
0.00 0.00 524.67 324.00 cl
0.00 0.00 524.67 324.00 cl
0.00 0.00 524.67 324.00 cl
/bg { 1 1 1 srgb } def
1 1 1 srgb
1.07 setlinewidth
[] 0 setdash
1 setlinecap
1 setlinejoin
10.00 setmiterlimit
0.00 0.00 524.67 324.00 r p3
0.00 0.00 524.67 324.00 cl
33.73 31.91 391.37 286.59 cl
/bg { 1 1 1 srgb } def
33.73 31.91 357.64 254.68 r p2
0.9216 0.9216 0.9216 srgb
0.53 setlinewidth
[] 0 setdash
0 setlinecap
1 setlinejoin
10.00 setmiterlimit
np
33.73 72.57 m
357.64 0 l
o
np
33.73 145.28 m
357.64 0 l
o
np
33.73 217.98 m
357.64 0 l
o
np
92.48 31.91 m
0 254.68 l
o
np
216.42 31.91 m
0 254.68 l
o
np
340.36 31.91 m
0 254.68 l
o
1.07 setlinewidth
[] 0 setdash
np
33.73 36.22 m
357.64 0 l
o
np
33.73 108.92 m
357.64 0 l
o
np
33.73 181.63 m
357.64 0 l
o
np
33.73 254.34 m
357.64 0 l
o
np
154.45 31.91 m
0 254.68 l
o
np
278.39 31.91 m
0 254.68 l
o
/bg { 0 0.7490 0.7686 srgb } def
0 0.7490 0.7686 srgb
0.71 setlinewidth
[] 0 setdash
1 setlinecap
131.97 192.31 2.49 c p3
/bg { 0.9725 0.4627 0.4275 srgb } def
0.9725 0.4627 0.4275 srgb
55.31 106.62 2.49 c p3
/bg { 0 0.7490 0.7686 srgb } def
0 0.7490 0.7686 srgb
292.78 203.80 2.49 c p3
95.87 182.20 2.49 c p3
/bg { 0.9725 0.4627 0.4275 srgb } def
0.9725 0.4627 0.4275 srgb
161.88 223.97 2.49 c p3
/bg { 0 0.7490 0.7686 srgb } def
0 0.7490 0.7686 srgb
167.45 71.05 2.49 c p3
98.17 239.95 2.49 c p3
/bg { 0.9725 0.4627 0.4275 srgb } def
0.9725 0.4627 0.4275 srgb
239.37 67.05 2.49 c p3
/bg { 0 0.7490 0.7686 srgb } def
0 0.7490 0.7686 srgb
105.33 256.26 2.49 c p3
/bg { 0.9725 0.4627 0.4275 srgb } def
0.9725 0.4627 0.4275 srgb
247.31 90.35 2.49 c p3
/bg { 0 0.7490 0.7686 srgb } def
0 0.7490 0.7686 srgb
67.23 213.79 2.49 c p3
70.51 217.66 2.49 c p3
150.68 244.52 2.49 c p3
319.02 228.74 2.49 c p3
/bg { 0.9725 0.4627 0.4275 srgb } def
0.9725 0.4627 0.4275 srgb
116.50 171.02 2.49 c p3
/bg { 0 0.7490 0.7686 srgb } def
0 0.7490 0.7686 srgb
77.11 161.64 2.49 c p3
302.80 67.89 2.49 c p3
/bg { 0.9725 0.4627 0.4275 srgb } def
0.9725 0.4627 0.4275 srgb
97.80 194.76 2.49 c p3
/bg { 0 0.7490 0.7686 srgb } def
0 0.7490 0.7686 srgb
147.18 226.39 2.49 c p3
272.79 214.94 2.49 c p3
298.43 238.74 2.49 c p3
/bg { 0.9725 0.4627 0.4275 srgb } def
0.9725 0.4627 0.4275 srgb
273.83 259.45 2.49 c p3
78.52 170.57 2.49 c p3
72.42 106.12 2.49 c p3
/bg { 0 0.7490 0.7686 srgb } def
0 0.7490 0.7686 srgb
92.44 202.12 2.49 c p3
196.15 151.44 2.49 c p3
/bg { 0.9725 0.4627 0.4275 srgb } def
0.9725 0.4627 0.4275 srgb
52.84 121.37 2.49 c p3
351.49 135.06 2.49 c p3
/bg { 0 0.7490 0.7686 srgb } def
0 0.7490 0.7686 srgb
120.46 240.26 2.49 c p3
/bg { 0.9725 0.4627 0.4275 srgb } def
0.9725 0.4627 0.4275 srgb
344.08 125.49 2.49 c p3
280.60 61.76 2.49 c p3
/bg { 0 0.7490 0.7686 srgb } def
0 0.7490 0.7686 srgb
231.50 225.23 2.49 c p3
128.56 216.56 2.49 c p3
/bg { 0.9725 0.4627 0.4275 srgb } def
0.9725 0.4627 0.4275 srgb
106.04 193.76 2.49 c p3
/bg { 0 0.7490 0.7686 srgb } def
0 0.7490 0.7686 srgb
76.54 218.71 2.49 c p3
69.27 243.05 2.49 c p3
69.23 242.68 2.49 c p3
122.20 196.63 2.49 c p3
/bg { 0.9725 0.4627 0.4275 srgb } def
0.9725 0.4627 0.4275 srgb
59.25 113.71 2.49 c p3
/bg { 0 0.7490 0.7686 srgb } def
0 0.7490 0.7686 srgb
145.85 221.69 2.49 c p3
74.04 138.45 2.49 c p3
118.96 214.65 2.49 c p3
357.97 217.80 2.49 c p3
63.03 164.82 2.49 c p3
/bg { 0.9725 0.4627 0.4275 srgb } def
0.9725 0.4627 0.4275 srgb
121.05 190.02 2.49 c p3
/bg { 0 0.7490 0.7686 srgb } def
0 0.7490 0.7686 srgb
102.67 149.31 2.49 c p3
88.58 155.63 2.49 c p3
115.32 215.82 2.49 c p3
/bg { 0.9725 0.4627 0.4275 srgb } def
0.9725 0.4627 0.4275 srgb
120.10 109.33 2.49 c p3
/bg { 0 0.7490 0.7686 srgb } def
0 0.7490 0.7686 srgb
80.13 173.93 2.49 c p3
/bg { 0.9725 0.4627 0.4275 srgb } def
0.9725 0.4627 0.4275 srgb
136.34 238.44 2.49 c p3
71.08 207.05 2.49 c p3
/bg { 0 0.7490 0.7686 srgb } def
0 0.7490 0.7686 srgb
50.93 111.47 2.49 c p3
63.79 148.63 2.49 c p3
69.24 217.15 2.49 c p3
/bg { 0.9725 0.4627 0.4275 srgb } def
0.9725 0.4627 0.4275 srgb
77.91 152.46 2.49 c p3
118.61 141.52 2.49 c p3
/bg { 0 0.7490 0.7686 srgb } def
0 0.7490 0.7686 srgb
154.00 184.48 2.49 c p3
/bg { 0.9725 0.4627 0.4275 srgb } def
0.9725 0.4627 0.4275 srgb
71.42 137.99 2.49 c p3
/bg { 0 0.7490 0.7686 srgb } def
0 0.7490 0.7686 srgb
110.95 181.48 2.49 c p3
193.60 228.67 2.49 c p3
275.58 241.65 2.49 c p3
165.24 229.08 2.49 c p3
88.90 107.20 2.49 c p3
262.86 129.52 2.49 c p3
375.11 213.67 2.49 c p3
/bg { 0.9725 0.4627 0.4275 srgb } def
0.9725 0.4627 0.4275 srgb
81.75 175.35 2.49 c p3
/bg { 0 0.7490 0.7686 srgb } def
0 0.7490 0.7686 srgb
94.32 211.46 2.49 c p3
85.09 160.31 2.49 c p3
140.92 189.05 2.49 c p3
/bg { 0.9725 0.4627 0.4275 srgb } def
0.9725 0.4627 0.4275 srgb
152.71 124.38 2.49 c p3
76.00 193.49 2.49 c p3
/bg { 0 0.7490 0.7686 srgb } def
0 0.7490 0.7686 srgb
49.99 113.05 2.49 c p3
75.62 164.27 2.49 c p3
113.02 200.85 2.49 c p3
136.97 185.54 2.49 c p3
149.13 275.01 2.49 c p3
135.95 227.56 2.49 c p3
289.41 181.64 2.49 c p3
77.11 159.41 2.49 c p3
117.73 196.31 2.49 c p3
129.55 230.33 2.49 c p3
302.35 192.41 2.49 c p3
/bg { 0.9725 0.4627 0.4275 srgb } def
0.9725 0.4627 0.4275 srgb
169.01 215.28 2.49 c p3
211.08 204.38 2.49 c p3
/bg { 0 0.7490 0.7686 srgb } def
0 0.7490 0.7686 srgb
74.46 128.22 2.49 c p3
278.31 220.10 2.49 c p3
92.29 148.94 2.49 c p3
/bg { 0.9725 0.4627 0.4275 srgb } def
0.9725 0.4627 0.4275 srgb
296.97 80.08 2.49 c p3
/bg { 0 0.7490 0.7686 srgb } def
0 0.7490 0.7686 srgb
237.74 238.10 2.49 c p3
/bg { 0.9725 0.4627 0.4275 srgb } def
0.9725 0.4627 0.4275 srgb
65.83 135.21 2.49 c p3
313.80 92.70 2.49 c p3
/bg { 0 0.7490 0.7686 srgb } def
0 0.7490 0.7686 srgb
363.40 152.75 2.49 c p3
204.02 262.90 2.49 c p3
/bg { 0.9725 0.4627 0.4275 srgb } def
0.9725 0.4627 0.4275 srgb
143.31 196.92 2.49 c p3
174.85 222.75 2.49 c p3
125.26 220.10 2.49 c p3
/bg { 0 0.7490 0.7686 srgb } def
0 0.7490 0.7686 srgb
70.17 223.08 2.49 c p3
348.27 199.90 2.49 c p3
/Font1 findfont 11 s
0 0 0 srgb
340.36 39.54 (Stress = 0.193) .5 0 t
0.2000 0.2000 0.2000 srgb
1.07 setlinewidth
[] 0 setdash
33.73 31.91 357.64 254.68 r p1
0.00 0.00 524.67 324.00 cl
0.00 0.00 524.67 324.00 cl
0.00 0.00 524.67 324.00 cl
0.00 0.00 524.67 324.00 cl
0.00 0.00 524.67 324.00 cl
0.00 0.00 524.67 324.00 cl
0.00 0.00 524.67 324.00 cl
0.00 0.00 524.67 324.00 cl
0.00 0.00 524.67 324.00 cl
0.00 0.00 524.67 324.00 cl
0.00 0.00 524.67 324.00 cl
0.00 0.00 524.67 324.00 cl
0.00 0.00 524.67 324.00 cl
0.00 0.00 524.67 324.00 cl
0.00 0.00 524.67 324.00 cl
0.00 0.00 524.67 324.00 cl
/Font1 findfont 9 s
0.3020 0.3020 0.3020 srgb
28.80 32.99 (-2) 1 0 t
28.80 105.69 (-1) 1 0 t
28.80 178.40 (0) 1 0 t
28.80 251.11 (1) 1 0 t
0.00 0.00 524.67 324.00 cl
0.00 0.00 524.67 324.00 cl
0.2000 0.2000 0.2000 srgb
1.07 setlinewidth
[] 0 setdash
0 setlinecap
1 setlinejoin
10.00 setmiterlimit
np
30.99 36.22 m
2.74 0 l
o
np
30.99 108.92 m
2.74 0 l
o
np
30.99 181.63 m
2.74 0 l
o
np
30.99 254.34 m
2.74 0 l
o
0.00 0.00 524.67 324.00 cl
0.00 0.00 524.67 324.00 cl
0.00 0.00 524.67 324.00 cl
0.00 0.00 524.67 324.00 cl
0.00 0.00 524.67 324.00 cl
0.00 0.00 524.67 324.00 cl
0.00 0.00 524.67 324.00 cl
0.00 0.00 524.67 324.00 cl
0.00 0.00 524.67 324.00 cl
0.00 0.00 524.67 324.00 cl
0.2000 0.2000 0.2000 srgb
1.07 setlinewidth
[] 0 setdash
0 setlinecap
1 setlinejoin
10.00 setmiterlimit
np
154.45 29.17 m
0 2.74 l
o
np
278.39 29.17 m
0 2.74 l
o
0.00 0.00 524.67 324.00 cl
0.00 0.00 524.67 324.00 cl
/Font1 findfont 9 s
0.3020 0.3020 0.3020 srgb
154.45 20.52 (0) .5 0 t
278.39 20.52 (1) .5 0 t
0.00 0.00 524.67 324.00 cl
0.00 0.00 524.67 324.00 cl
0.00 0.00 524.67 324.00 cl
0.00 0.00 524.67 324.00 cl
0.00 0.00 524.67 324.00 cl
0.00 0.00 524.67 324.00 cl
/Font1 findfont 11 s
0 0 0 srgb
212.55 7.90 (NMDS1) .5 0 t
0.00 0.00 524.67 324.00 cl
0.00 0.00 524.67 324.00 cl
/Font1 findfont 11 s
0 0 0 srgb
13.38 159.25 (NMDS2) .5 90 t
0.00 0.00 524.67 324.00 cl
0.00 0.00 524.67 324.00 cl
0.00 0.00 524.67 324.00 cl
0.00 0.00 524.67 324.00 cl
0.00 0.00 524.67 324.00 cl
0.00 0.00 524.67 324.00 cl
0.00 0.00 524.67 324.00 cl
0.00 0.00 524.67 324.00 cl
/bg { 1 1 1 srgb } def
402.33 128.59 116.86 61.32 r p2
0.00 0.00 524.67 324.00 cl
0.00 0.00 524.67 324.00 cl
0.00 0.00 524.67 324.00 cl
0.00 0.00 524.67 324.00 cl
0.00 0.00 524.67 324.00 cl
0.00 0.00 524.67 324.00 cl
0.00 0.00 524.67 324.00 cl
/bg { 1 1 1 srgb } def
407.81 151.35 17.28 17.28 r p2
0.00 0.00 524.67 324.00 cl
0.00 0.00 524.67 324.00 cl
/bg { 0.9725 0.4627 0.4275 srgb } def
0.9725 0.4627 0.4275 srgb
0.71 setlinewidth
[] 0 setdash
1 setlinecap
1 setlinejoin
10.00 setmiterlimit
416.45 159.99 2.49 c p3
0.00 0.00 524.67 324.00 cl
0.00 0.00 524.67 324.00 cl
/bg { 1 1 1 srgb } def
407.81 134.07 17.28 17.28 r p2
0.00 0.00 524.67 324.00 cl
0.00 0.00 524.67 324.00 cl
/bg { 0 0.7490 0.7686 srgb } def
0 0.7490 0.7686 srgb
0.71 setlinewidth
[] 0 setdash
1 setlinecap
1 setlinejoin
10.00 setmiterlimit
416.45 142.71 2.49 c p3
0.00 0.00 524.67 324.00 cl
0.00 0.00 524.67 324.00 cl
0.00 0.00 524.67 324.00 cl
0.00 0.00 524.67 324.00 cl
/Font1 findfont 9 s
0 0 0 srgb
430.57 156.76 (Non-carr) 0 ta
0.135 (iers) tb gr
0.00 0.00 524.67 324.00 cl
0.00 0.00 524.67 324.00 cl
0.00 0.00 524.67 324.00 cl
0.00 0.00 524.67 324.00 cl
0.00 0.00 524.67 324.00 cl
/Font3 findfont 9 s
0 0 0 srgb
430.57 140.44 (Mycoplasma ) 0 0 t
/Font1 findfont 9 s
483.58 140.44 (carr) 0 ta
0.135 (iers) tb gr
0.00 0.00 524.67 324.00 cl
0.00 0.00 524.67 324.00 cl
0.00 0.00 524.67 324.00 cl
0.00 0.00 524.67 324.00 cl
0.00 0.00 524.67 324.00 cl
0.00 0.00 524.67 324.00 cl
0.00 0.00 524.67 324.00 cl
/Font1 findfont 13 s
0 0 0 srgb
33.73 309.19 (Mycoplasma pneumoniae carr) 0 ta
0.195 (iage    ) tb gr
33.73 294.93 (PERMANO) 0 ta
-0.650 (V) tb
-1.040 (A R2 2.2% \(p=0.04, corrected f) tb
-0.390 (or age\)) tb gr
0.00 0.00 524.67 324.00 cl
0.00 0.00 524.67 324.00 cl
0.00 0.00 524.67 324.00 cl
0.00 0.00 524.67 324.00 cl
0.00 0.00 524.67 324.00 cl
0.00 0.00 524.67 324.00 cl
ep
%%Trailer
%%Pages: 1
%%EOF
